Project1 Check 4 Final
…
female_leader_any <- masterSet |>
  rowwise() |>
  mutate(
    female_leader = any(c_across(c(is_female_monarch, is_female_president)) == 1, na.rm = TRUE)
  ) |>
  ungroup()

female_leader_any <- female_leader_any |> filter(!is.na(gdp_growth)) 

female_leader_any |> 
    count(female_leader, year) |>
    filter(female_leader == TRUE) |>
    arrange(-n)

# A tibble: 41 × 3
   female_leader  year     n
   <lgl>         <int> <int>
 1 TRUE           2019    15
 2 TRUE           2011    14
 3 TRUE           2020    14
 4 TRUE           2010    13
 5 TRUE           2016    13
 6 TRUE           2017    13
 7 TRUE           2018    13
 8 TRUE           2012    12
 9 TRUE           2015    12
10 TRUE           2002    11
# ℹ 31 more rows
…
